<svg width="104" height="104" viewBox="0 0 104 104" fill="none" xmlns="http://www.w3.org/2000/svg">
    <rect width="104" height="104" rx="8" fill="white" />
    <mask id="mask0_10017_33541" style="mask-type:alpha" maskUnits="userSpaceOnUse" x="0" y="0"
        width="104" height="104">
        <rect width="104" height="104" rx="8" fill="white" />
    </mask>
    <g mask="url(#mask0_10017_33541)">
        <path
            d="M48.4472 33.3097C48.9416 33.9705 47.2954 36.6594 46.4105 37.9212L49.971 38.2564C50.3685 37.026 51.2646 34.4984 51.669 34.2314C52.1746 33.8976 52.5809 33.1937 53.6283 31.9214C54.6757 30.6491 58.0015 30.8488 59.581 30.8222C61.1604 30.7956 59.7528 29.9829 59.0489 29.5765L59.0488 29.5764C58.345 29.17 57.5238 28.6959 56.445 29.4808C55.3662 30.2657 54.2946 29.6405 54.1458 29.0854C53.9971 28.5302 58.7442 22.518 59.4577 20.7402C60.1713 18.9623 59.5847 18.6236 58.6595 18.8715C57.7343 19.1194 56.6459 22.0886 55.8827 23.6814C55.1196 25.2743 53.8685 26.5854 53.6339 26.4499C53.3993 26.3145 55.9202 19.0106 55.6723 18.0853C55.4244 17.1601 54.6842 17.3584 53.8401 18.2788C52.9959 19.1992 52.5786 26.1535 52.344 26.018C52.1094 25.8825 52.1284 24.0336 51.6689 21.5784C51.2094 19.1232 50.5247 18.0298 49.6491 18.4627C48.3416 19.1092 50.2229 21.7139 50.6967 22.7976C51.9775 25.7269 50.8322 25.9272 50.6968 26.1619C50.5613 26.3965 50.0159 24.361 49.2987 23.1648L49.2818 23.1365C48.5726 21.9535 48.0055 21.0076 46.7565 20.752C45.4975 20.4943 45.9296 22.1842 47.5342 23.2409C49.4608 24.5097 49.0544 25.2136 49.2032 25.7687C49.3519 26.3239 47.4765 29.3015 47.0024 30.1227C46.5283 30.9439 47.8292 32.4836 48.4472 33.3097Z"
            fill="url(#paint0_linear_10017_33541)" />
        <mask id="mask1_10017_33541" style="mask-type:alpha" maskUnits="userSpaceOnUse" x="46"
            y="17" width="15" height="22">
            <path
                d="M48.4472 33.3097C48.9416 33.9705 47.2954 36.6594 46.4105 37.9212L49.971 38.2564C50.3685 37.026 51.2646 34.4984 51.669 34.2314C52.1746 33.8976 52.5809 33.1937 53.6283 31.9214C54.6757 30.6491 58.0015 30.8488 59.581 30.8222C61.1604 30.7956 59.7528 29.9829 59.0489 29.5765L59.0488 29.5764C58.345 29.17 57.5238 28.6959 56.445 29.4808C55.3662 30.2657 54.2946 29.6405 54.1458 29.0854C53.9971 28.5302 58.7442 22.518 59.4577 20.7402C60.1713 18.9623 59.5847 18.6236 58.6595 18.8715C57.7343 19.1194 56.6459 22.0886 55.8827 23.6814C55.1196 25.2743 53.8685 26.5854 53.6339 26.4499C53.3993 26.3145 55.9202 19.0106 55.6723 18.0853C55.4244 17.1601 54.6842 17.3584 53.8401 18.2788C52.9959 19.1992 52.5786 26.1535 52.344 26.018C52.1094 25.8825 51.9026 23.2604 51.443 20.8052C50.9835 18.35 50.149 17.0861 49.2734 17.5191C47.966 18.1655 49.115 19.1482 50.3957 22.0775C51.6764 25.0069 50.8322 25.9272 50.6968 26.1619C50.5613 26.3965 50.0159 24.361 49.2987 23.1648L49.2818 23.1365C48.5726 21.9535 48.0055 21.0076 46.7565 20.752C45.4975 20.4943 45.9296 22.1842 47.5342 23.2409C49.4608 24.5097 49.0544 25.2136 49.2032 25.7687C49.3519 26.3239 47.4765 29.3015 47.0024 30.1227C46.5283 30.9439 47.8292 32.4836 48.4472 33.3097Z"
                fill="url(#paint1_linear_10017_33541)" />
        </mask>
        <g mask="url(#mask1_10017_33541)">
            <path
                d="M54.407 30.8005C55.6057 30.2413 58.8386 30.4394 60.3052 30.6084L54.1517 39.0998L45.9569 38.1222L46.6039 32.3955C46.9784 32.5596 47.8953 32.9221 48.5668 33.0595C49.4061 33.2313 49.1896 32.7935 49.677 32.762C50.1644 32.7306 50.3809 33.1684 51.2383 33.0379C52.0958 32.9073 52.9085 31.4995 54.407 30.8005Z"
                fill="url(#paint2_linear_10017_33541)" />
            <path
                d="M53.032 26.4092C52.4438 26.4346 51.1059 26.5484 50.4596 26.8009C51.5751 26.8194 52.6393 26.5474 53.032 26.4092Z"
                fill="url(#paint3_linear_10017_33541)" />
            <path
                d="M52.9231 28.2231C51.9362 28.4876 49.7999 29.298 49.1498 30.4242C50.3277 30.0094 51.9798 28.7734 52.9231 28.2231Z"
                fill="url(#paint4_linear_10017_33541)" />
            <path
                d="M50.7983 26.2141C49.9912 27.1999 49.4994 23.5872 49.4994 23.5872L50.8213 24.8196L50.9519 25.6772C50.9519 25.6772 51.0684 25.8841 50.7983 26.2141Z"
                fill="url(#paint5_linear_10017_33541)" />
            <path
                d="M52.7261 23.417C52.7527 24.9965 52.5778 26.2642 52.3371 26.2921C52.1035 26.3191 51.4574 25.3436 51.6885 22.505L52.7261 23.417Z"
                fill="url(#paint6_linear_10017_33541)" />
            <path
                d="M53.5614 26.3233C53.6636 26.7971 54.4902 24.8835 54.8908 23.8674L54.816 21.9645C53.2352 26.0573 53.4592 25.8496 53.5614 26.3233Z"
                fill="url(#paint7_linear_10017_33541)" />
        </g>
        <path d="M91.1595 34.8542L79.1039 34.7188L77.8848 39.8664L92.785 40.1373L91.1595 34.8542Z"
            fill="#A7B1DF" />
        <path
            d="M76.9365 46.2676L79.5102 34.6177H90.4822L93.0559 46.2676L84.5221 51.8217L76.9365 46.2676Z"
            fill="#FF9D9A" />
        <mask id="mask2_10017_33541" style="mask-type:alpha" maskUnits="userSpaceOnUse" x="76"
            y="34" width="18" height="18">
            <path
                d="M76.9365 46.2676L79.5102 34.6177H90.4822L93.0559 46.2676L84.5221 51.8217L76.9365 46.2676Z"
                fill="#FF9D9A" />
        </mask>
        <g mask="url(#mask2_10017_33541)">
            <path
                d="M77.2075 38.802C88.8026 40.7527 92.4238 36.0024 92.785 33.3834L82.2194 31.7578C75.7175 33.2931 65.6124 36.8513 77.2075 38.802Z"
                fill="url(#paint8_linear_10017_33541)" />
        </g>
        <path
            d="M76.2253 24.3436C76.9243 20.9745 77.7796 16.5027 78.2913 13.7558C80.1877 9.15 90.076 12.2657 91.0242 13.2139C91.6938 13.8836 93.039 21.0387 93.9147 25.424C94.3539 27.623 94.3232 29.9771 93.0748 31.8399C92.0368 33.3887 90.6949 35.042 89.6697 35.7011C87.7733 36.9203 85.1996 37.0558 81.8132 36.3784C80.3084 36.0775 78.7618 34.4809 77.4985 32.7262C75.8012 30.3689 75.6352 27.1878 76.2253 24.3436Z"
            fill="url(#paint9_linear_10017_33541)" />
        <path
            d="M84.6575 32.8415C84.0074 32.9498 83.4836 32.6157 83.303 32.4351C83.4384 32.706 83.899 33.2478 84.6575 33.2478C85.4161 33.2478 85.7864 32.706 85.8767 32.4351C85.7412 32.5254 85.3077 32.7331 84.6575 32.8415Z"
            fill="#E87172" />
        <path
            d="M79.3749 29.319C79.1943 29.048 78.7284 28.4789 78.5116 28.6956C78.2407 28.9666 78.6977 29.4545 79.3749 29.319Z"
            fill="#E87172" />
        <path
            d="M89.6697 29.4547C89.8503 29.1838 90.486 28.5333 90.7027 28.75C90.9736 29.0209 90.3469 29.5902 89.6697 29.4547Z"
            fill="#E87172" />
        <path
            d="M82.7107 30.1862C85.4198 30.7281 89.1674 29.5992 90.7026 28.967C87.6816 31.0996 81.9823 31.9718 79.0533 29.2379L78.647 28.8315C78.8727 29.0573 80.0015 29.6443 82.7107 30.1862Z"
            fill="#E87172" />
        <path
            d="M83.0321 25.9325C83.3572 25.6074 83.89 23.178 84.1157 22.004C84.6144 21.0066 84.8083 22.755 85.1994 24.3069L85.2034 24.3227C85.4041 25.1193 85.4739 25.3959 86.0121 26.2034C85.7412 26.4292 85.1452 26.7453 84.3866 26.7453C83.4384 26.7453 82.6257 26.3389 83.0321 25.9325Z"
            fill="url(#paint10_linear_10017_33541)" />
        <path
            d="M84.1159 19.5659C84.3326 19.891 84.161 23.0428 83.7095 24.1717C81.2171 25.5805 77.93 24.3974 77.4785 23.7653L77.8849 20.785L83.0322 18.3467C83.3032 18.6176 83.8992 19.2407 84.1159 19.5659Z"
            fill="#F38F89" fill-opacity="0.8" />
        <path
            d="M85.5051 19.5659C85.2883 19.891 86.1372 22.23 86.5887 23.3589C89.0811 24.7677 91.6561 24.5329 92.1077 23.9007L91.7361 20.785L86.5887 18.3467C86.3178 18.6176 85.7218 19.2407 85.5051 19.5659Z"
            fill="#F38F89" fill-opacity="0.8" />
        <path
            d="M87.1965 21.1362C86.7892 21.5436 86.5028 22.5604 86.5393 23.3273C86.5393 23.3273 86.9448 23.4336 87.087 23.5464C87.8677 24.1656 89.423 24.243 90.2639 23.7655C90.5545 23.6005 90.9212 23.3273 90.9212 23.3273C90.3735 21.7935 89.8914 21.2238 89.7162 21.1361C89.278 20.8075 87.5252 20.8075 87.1965 21.1362Z"
            fill="url(#paint11_linear_10017_33541)" />
        <path
            d="M87.0926 19.9471C86.4353 20.0566 86.2982 18.967 86.5392 18.3973C88.7302 18.1344 90.1818 18.9172 91.3212 20.2319C91.4307 20.4291 91.4964 20.6482 91.606 20.8673C90.2695 20.2319 88.9111 19.6403 87.0926 19.9471Z"
            fill="#131163" />
        <path
            d="M87.8955 21.5062C87.6268 21.5872 87.1117 22.754 86.8877 23.3273C86.8131 23.2599 87.1682 21.7608 87.1966 21.684C87.3085 21.3805 87.4476 21.3039 87.8955 21.2027C88.3434 21.1015 89.2392 21.1015 89.6871 21.3039C90.0454 21.4657 90.6973 22.7203 90.9212 23.3273C90.5107 22.754 89.7767 21.5872 89.6871 21.5062C89.5751 21.405 88.2314 21.405 87.8955 21.5062Z"
            fill="#02243D" />
        <path
            d="M87.9634 21.3554C87.4376 21.4431 87.0505 22.7158 86.8679 23.3001C88.6207 24.3518 90.2639 23.7383 90.9212 23.3001C90.6291 22.7158 89.9791 21.5253 89.7162 21.4376C89.3876 21.3281 88.6207 21.2459 87.9634 21.3554Z"
            fill="#FFEBED" />
        <path
            d="M87.5251 22.5606C87.5251 23.2234 88.0674 23.7657 88.7302 23.7657C89.393 23.7657 89.9352 23.2234 89.9352 22.5606C89.9352 21.8978 89.393 21.3555 88.7302 21.3555C88.0674 21.3555 87.5251 21.8978 87.5251 22.5606Z"
            fill="#2566F9" />
        <path
            d="M88.7302 23.3838C89.185 23.3838 89.5536 23.0151 89.5536 22.5603C89.5536 22.1055 89.185 21.7368 88.7302 21.7368C88.2754 21.7368 87.9067 22.1055 87.9067 22.5603C87.9067 23.0151 88.2754 23.3838 88.7302 23.3838Z"
            fill="url(#paint12_linear_10017_33541)" />
        <path
            d="M87.8064 23.6253C87.6859 23.4847 88.1478 22.9223 88.3486 23.0629C88.5696 23.2035 87.9871 23.8261 87.8064 23.6253ZM89.2524 21.8979C89.1118 21.8979 88.9913 22.0185 88.9913 22.1591C88.9913 22.2997 89.1118 22.4202 89.2524 22.4202C89.393 22.4202 89.5135 22.2997 89.5135 22.1591C89.5135 22.0185 89.4131 21.8979 89.2524 21.8979Z"
            fill="white" />
        <path
            d="M82.2942 21.1362C82.7016 21.5436 82.988 22.5604 82.9514 23.3273C82.9514 23.3273 82.5459 23.4336 82.4037 23.5464C81.623 24.1656 80.0677 24.243 79.2268 23.7655C78.9362 23.6005 78.5695 23.3273 78.5695 23.3273C79.1173 21.7935 79.5993 21.2238 79.7746 21.1361C80.2127 20.8075 81.9655 20.8075 82.2942 21.1362Z"
            fill="url(#paint13_linear_10017_33541)" />
        <path
            d="M82.3982 19.947C83.0555 20.0566 83.1925 18.967 82.9515 18.3973C80.7605 18.1344 79.3089 18.9172 78.1696 20.2319C78.06 20.4291 77.9943 20.6482 77.8847 20.8673C79.2212 20.2319 80.5797 19.6403 82.3982 19.947Z"
            fill="#131163" />
        <path
            d="M81.5952 21.5062C81.864 21.5872 82.379 22.754 82.603 23.3273C82.6776 23.2599 82.3225 21.7608 82.2942 21.684C82.1822 21.3805 82.0431 21.3039 81.5952 21.2027C81.1473 21.1015 80.2515 21.1015 79.8036 21.3039C79.4453 21.4657 78.7934 22.7203 78.5695 23.3273C78.9801 22.754 79.7141 21.5872 79.8036 21.5062C79.9156 21.405 81.2593 21.405 81.5952 21.5062Z"
            fill="#02243D" />
        <path
            d="M81.5273 21.3554C82.0531 21.4431 82.4402 22.7158 82.6228 23.3001C80.87 24.3518 79.2268 23.7383 78.5695 23.3001C78.8616 22.7158 79.5116 21.5253 79.7745 21.4376C80.1032 21.3281 80.87 21.2459 81.5273 21.3554Z"
            fill="#FFEBED" />
        <path
            d="M81.9656 22.5606C81.9656 23.2234 81.4233 23.7657 80.7605 23.7657C80.0978 23.7657 79.5555 23.2234 79.5555 22.5606C79.5555 21.8978 80.0978 21.3555 80.7605 21.3555C81.4233 21.3555 81.9656 21.8978 81.9656 22.5606Z"
            fill="#2566F9" />
        <path
            d="M80.7605 23.3838C80.3058 23.3838 79.9371 23.0151 79.9371 22.5603C79.9371 22.1055 80.3058 21.7368 80.7605 21.7368C81.2153 21.7368 81.584 22.1055 81.584 22.5603C81.584 23.0151 81.2153 23.3838 80.7605 23.3838Z"
            fill="url(#paint14_linear_10017_33541)" />
        <path
            d="M79.9971 23.6253C79.8765 23.4847 80.3385 22.9223 80.5393 23.0629C80.7602 23.2035 80.1778 23.8261 79.9971 23.6253ZM81.4431 21.8979C81.3025 21.8979 81.182 22.0185 81.182 22.1591C81.182 22.2997 81.3025 22.4202 81.4431 22.4202C81.5837 22.4202 81.7042 22.2997 81.7042 22.1591C81.7042 22.0185 81.6038 21.8979 81.4431 21.8979Z"
            fill="white" />
        <path
            d="M86.0122 26.2035C84.3867 26.7454 83.5288 26.4293 83.1676 26.2035C83.0321 26.0681 83.8449 26.0681 84.1158 21.8687C83.7094 24.8489 82.7612 25.6617 82.7612 26.0681C82.7612 26.4745 83.1676 26.8809 83.9803 27.1518C84.7931 27.4227 84.7931 27.2872 86.0122 26.2035Z"
            fill="#E87172" />
        <path
            d="M92.0572 27.1391C92.9533 26.899 93.5447 26.2005 93.3782 25.579C93.2116 24.9575 92.3503 24.6484 91.4542 24.8885C90.5582 25.1286 89.9668 25.8271 90.1333 26.4485C90.2998 27.07 91.1612 27.3792 92.0572 27.1391Z"
            fill="#E87172" fill-opacity="0.5" />
        <path
            d="M77.9083 27.139C78.8044 27.3791 79.6658 27.0699 79.8323 26.4484C79.9988 25.8269 79.4074 25.1285 78.5113 24.8884C77.6153 24.6483 76.7539 24.9574 76.5874 25.5789C76.4209 26.2004 77.0123 26.8989 77.9083 27.139Z"
            fill="#E87172" fill-opacity="0.5" />
        <path
            d="M90.2114 12.7924C85.9851 14.6347 82.2194 13.1497 80.8649 12.3369L80.1477 12.8432C79.1277 13.5632 78.414 14.6388 78.147 15.8584L76.8012 22.004L75.7175 20.6493V13.4697C75.7174 11.216 77.343 10.9823 79.2394 10.7114C78.8059 9.62766 79.6006 7.91174 80.0521 7.18925C81.5422 4.80494 93.1914 6.01923 94.4105 10.7114L94.1396 20.6493C93.8687 20.9654 93.6249 21.4131 93.1914 21.9549C92.1078 15.2307 90.7532 13.3342 90.2114 12.7924Z"
            fill="#172070" />
        <path
            d="M74.8311 20.3327C75.6981 19.8992 76.5469 21.1454 76.863 21.8228L75.7793 26.9704C75.3278 26.2028 74.558 24.5577 74.4248 24.2611C74.0803 23.4943 73.7475 20.8745 74.8311 20.3327Z"
            fill="#FFA48F" />
        <path
            d="M75.2993 21.5977C75.6244 21.5977 75.8863 23.1329 75.9766 23.9006C75.8411 23.5845 75.5431 22.9252 75.4348 22.8168C75.3264 22.7085 75.0284 23.4039 74.8929 23.7651L75.0284 22.5459L74.4866 22.8168C74.622 22.4104 74.9742 21.5977 75.2993 21.5977Z"
            fill="#E87172" />
        <mask id="mask3_10017_33541" style="mask-type:alpha" maskUnits="userSpaceOnUse" x="74"
            y="20" width="3" height="7">
            <path
                d="M74.8311 20.3327C75.6981 19.8992 76.5469 21.1454 76.863 21.8228L75.7793 26.9704C75.3278 26.2028 74.558 24.5577 74.4248 24.2611C74.0803 23.4943 73.7475 20.8745 74.8311 20.3327Z"
                fill="#FFA48F" />
        </mask>
        <g mask="url(#mask3_10017_33541)">
            <path
                d="M75.1639 20.785C74.8388 20.6766 74.2157 21.1914 73.9448 21.4623L74.3512 20.514L75.2994 19.9722L76.1121 20.514L77.0603 21.8687L76.654 23.4943C76.2927 22.6363 75.489 20.8933 75.1639 20.785Z"
                fill="url(#paint15_linear_10017_33541)" />
        </g>
        <path
            d="M95.0878 20.3327C94.2209 19.8992 93.372 21.1454 93.056 21.8228L94.1396 26.9704C94.5911 26.2028 95.3609 24.5577 95.4942 24.2611C95.8387 23.4943 96.1715 20.8745 95.0878 20.3327Z"
            fill="#FFA48F" />
        <path
            d="M94.6196 21.5977C94.2945 21.5977 94.0327 23.1329 93.9423 23.9006C94.0778 23.5845 94.3758 22.9252 94.4842 22.8168C94.5925 22.7085 94.8905 23.4039 95.026 23.7651L94.8905 22.5459L95.4324 22.8168C95.2969 22.4104 94.9447 21.5977 94.6196 21.5977Z"
            fill="#E87172" />
        <mask id="mask4_10017_33541" style="mask-type:alpha" maskUnits="userSpaceOnUse" x="93"
            y="20" width="3" height="7">
            <path
                d="M95.0878 20.3327C94.2209 19.8992 93.372 21.1454 93.056 21.8228L94.1396 26.9704C94.5911 26.2028 95.3609 24.5577 95.4942 24.2611C95.8387 23.4943 96.1715 20.8745 95.0878 20.3327Z"
                fill="#FFA48F" />
        </mask>
        <g mask="url(#mask4_10017_33541)">
            <path
                d="M94.755 20.785C95.0801 20.6766 95.7032 21.1914 95.9741 21.4623L95.5678 20.514L94.6196 19.9722L93.8068 20.514L92.8586 21.8687L93.265 23.4943C93.6262 22.6363 94.4299 20.8933 94.755 20.785Z"
                fill="url(#paint16_linear_10017_33541)" />
        </g>
        <mask id="mask5_10017_33541" style="mask-type:alpha" maskUnits="userSpaceOnUse" x="75" y="6"
            width="20" height="17">
            <path
                d="M90.2114 12.7924C85.9851 14.6347 82.2194 13.1497 80.8649 12.3369L80.1477 12.8432C79.1277 13.5632 78.414 14.6388 78.147 15.8584L76.8012 22.004L75.7175 20.6493V13.4697C75.7174 11.216 77.343 10.9823 79.2394 10.7114C78.8059 9.62766 79.6006 7.91174 80.0521 7.18925C81.5422 4.80494 93.1914 6.01923 94.4105 10.7114L94.1396 20.6493C93.8687 20.9654 93.6249 21.4131 93.1914 21.9549C92.1078 15.2307 90.7532 13.3342 90.2114 12.7924Z"
                fill="#454C8A" />
        </mask>
        <g mask="url(#mask5_10017_33541)">
            <path
                d="M80.7293 12.3859C81.4878 13.1445 86.1927 15.05 89.1276 14.6888C94.3401 14.1147 95.4009 11.2961 89.6694 12.1149C85.8766 12.6568 89.6694 7.6446 83.032 6.69635C81.1357 6.42542 79.9165 9.27018 79.7811 9.94751C79.6456 10.6248 79.7811 11.4376 80.7293 12.3859Z"
                fill="url(#paint17_linear_10017_33541)" />
            <path
                d="M78.1557 12.7924C78.4808 11.6003 79.5554 11.3926 80.0521 11.4377L80.8648 12.386L76.5302 23.0877C76.485 22.1395 77.8306 13.9845 78.1557 12.7924Z"
                fill="url(#paint18_linear_10017_33541)" />
            <path
                d="M92.6495 12.9279C93.5164 13.7949 93.372 19.4302 93.1914 22.1395L89.8049 12.9279C90.3919 12.5667 91.7826 12.0609 92.6495 12.9279Z"
                fill="url(#paint19_linear_10017_33541)" />
            <path
                d="M84.2512 8.28408C81.6504 7.85059 80.3681 9.63872 80.052 10.587C80.1423 9.81934 80.6751 8.12152 82.0839 7.47128C83.8448 6.65849 86.0121 8.14861 89.1276 9.23233C90.9569 9.86866 91.7306 9.91145 91.995 9.79991C92.05 9.73544 92.0869 9.68018 92.1077 9.63872C92.1197 9.69878 92.0908 9.75949 91.995 9.79991C91.8102 10.0163 91.421 10.3365 90.7531 10.587C89.6694 10.9934 87.5021 8.82594 84.2512 8.28408Z"
                fill="url(#paint20_linear_10017_33541)" />
            <path
                d="M76.5302 18.2112C77.072 17.5339 76.3948 15.231 76.2593 13.7409C76.1327 12.3484 77.5166 11.8562 78.5621 11.438C78.1557 11.8444 77.2617 13.0907 76.9366 13.7409C76.5302 14.5537 77.7493 17.5339 76.5302 18.2112Z"
                fill="url(#paint21_linear_10017_33541)" />
            <path
                d="M84.7929 9.13475C82.9507 8.59289 80.4132 10.6248 79.9165 11.3021C80.5938 11.0312 83.3029 9.64948 84.3866 9.54111C85.7411 9.40565 87.3666 11.0312 89.3985 10.7603C88.4503 10.7603 87.0957 9.81207 84.7929 9.13475Z"
                fill="url(#paint22_linear_10017_33541)" />
        </g>
        <path
            d="M92.2433 10.896C92.8755 11.3475 94.0855 12.6841 93.8688 14.4181C93.8197 14.8111 93.7696 15.1651 93.7206 15.4808C93.6484 16.1402 93.5058 16.7816 93.3705 17.2519C93.3537 17.3133 93.339 17.3621 93.327 17.3983C93.3413 17.3516 93.3559 17.3028 93.3705 17.2519C93.4511 16.9575 93.582 16.3719 93.7206 15.4808C93.8369 14.417 93.7697 13.3064 93.1915 12.7925C92.2162 11.9255 92.153 11.1669 92.2433 10.896Z"
            fill="url(#paint23_linear_10017_33541)" />
        <path
            d="M84.7327 46.0977C81.1413 45.9604 78.5017 39.189 78.5017 39.189L78.3662 39.7308C78.3662 39.7308 81.0564 46.7287 84.8681 46.9105C88.8675 47.1011 92.0473 40.4081 92.0473 40.4081L91.641 40.1372C91.641 40.1372 88.4824 46.2409 84.7327 46.0977Z"
            fill="#5A8DFF" />
        <path
            d="M45.1044 34.312C50.1162 35.3872 53.2062 35.3872 54.8573 35.3872L49.7099 59.5085L62.5783 44.8783L69.4866 57.4765C60.8174 64.8368 44.8889 74.6805 43.3488 74.6805C40.9105 74.6805 39.5506 74.0032 38.259 71.9712C36.7947 64.169 41.9555 43.7991 43.3488 39.5952C44.2916 36.7504 44.4271 36.6149 45.1044 34.312Z"
            fill="#DBE1EB" />
        <path
            d="M84.7325 46.64C81.0689 46.4904 78.3661 39.5952 78.3661 39.5952L73.4896 40.854L68.3423 103.806H103.019L100.581 42.1241L91.6408 39.7307C91.6408 39.7307 88.5166 46.7945 84.7325 46.64Z"
            fill="#2566F9" />
        <path
            d="M82.2195 64.9271C77.3431 56.5825 76.8464 43.9301 77.2076 38.647L70.2993 43.7946L72.1957 77.5254L73.4148 101.774L100.1 100.148L94.6815 69.6684C91.4306 67.0946 87.096 73.2718 82.2195 64.9271Z"
            fill="url(#paint24_linear_10017_33541)" />
        <path
            d="M94.275 86.4659C86.6894 83.8921 75.8529 66.1462 75.1756 65.0625C73.2792 67.5009 70.6243 75.6288 75.1756 88.6334C79.727 101.638 88.3601 98.0256 92.1077 94.5938C95.3587 92.7425 100.343 88.525 94.275 86.4659Z"
            fill="url(#paint25_linear_10017_33541)" />
        <path
            d="M107.662 45.0492L96.1185 39.8662L93.8687 58.2129L87.6377 75.0871V104H108.363L104.128 66.488L107.662 45.0492Z"
            fill="#DBE1EB" />
        <path d="M91.0242 34.854L93.3269 35.9377L94.546 40.5435L91.6409 39.7307L91.0242 34.854Z"
            fill="#A7B1DF" />
        <path
            d="M88.9923 75.7646L99.8288 53.5483L87.6377 75.2227V96.8971L94.6814 71.0233L89.9405 77.5256L88.9923 75.7646Z"
            fill="url(#paint26_linear_10017_33541)" />
        <path
            d="M101.048 46.6396C100.416 44.8334 98.9891 41.3023 98.8807 41.0855L97.2552 40.4082L96.0361 48.1297L96.7134 57.7477L100.506 53.5483L97.7971 50.5681L101.048 46.6396Z"
            fill="url(#paint27_linear_10017_33541)" />
        <path
            d="M108.751 45.1409C105.488 45.1409 106.051 44.4722 104.4 44.4722L103.215 65.8292C105.789 73.1907 104.4 72.9198 107.279 79.693L97.6615 93.375L108.363 103.806L114.468 82.9975C114.819 81.7985 114.944 80.5513 114.835 79.3066C113.826 67.7908 111.836 45.1409 108.751 45.1409Z"
            fill="#DBE1EB" />
        <path
            d="M103.486 63.4373C103.811 62.0284 104.976 53.6387 105.518 49.6199L106.195 47.5879C105.744 52.6452 105.193 63.7353 106.602 67.6367C108.01 71.5381 107.64 77.2547 107.414 79.6931L105.789 75.6291L104.434 69.3977L105.924 82.6733L96.7134 89.3111L103.486 69.2623C103.351 67.9076 103.161 64.8461 103.486 63.4373Z"
            fill="url(#paint28_linear_10017_33541)" />
        <path
            d="M108.904 96.0839L105.789 81.9956C104.705 85.1113 102.89 92.6702 104.299 97.9805C105.708 103.291 107.956 98.9287 108.904 96.0839Z"
            fill="url(#paint29_linear_10017_33541)" />
        <path
            d="M66.0001 66.3527L62.5783 44.8786C62.5783 44.8786 63.1365 44.0195 63.662 43.6594C64.1755 43.3076 65.152 43.0938 65.152 43.0938L74.0097 39.731L76.2595 58.0776L82.4905 74.9518V103.865H61.7656L66.0001 66.3527Z"
            fill="#DBE1EB" />
        <path d="M79.104 34.7188L76.8012 35.8025L75.5821 40.4083L78.3661 39.5955L79.104 34.7188Z"
            fill="#A7B1DF" />
        <path
            d="M81.1359 75.6293L70.2994 53.4131L82.4905 75.0875V96.7618L75.4467 70.888L80.1877 77.3904L81.1359 75.6293Z"
            fill="url(#paint30_linear_10017_33541)" />
        <path
            d="M66.642 69.127C66.7774 67.7723 66.9671 64.7108 66.642 63.302C65.4361 58.076 65.9027 56.3428 64.2038 51.2456L55.1282 67.9078L65.152 60.9991L66.1002 66.2822L65.6938 69.2624L64.2038 82.538L68.6738 75.9002L66.642 69.127Z"
            fill="url(#paint31_linear_10017_33541)" />
        <path
            d="M72.2119 41.095C68.8487 44.6878 71.4069 53.8636 72.3637 56.6785L71.2918 57.0042C71.2918 57.0042 69.7214 51.4992 69.7259 46.7377C69.7281 42.6387 71.565 40.2224 72.6205 40.5127L72.2119 41.095Z"
            fill="#131163" />
        <path
            d="M71.903 54.3238C72.0567 54.9135 72.187 55.5103 72.3478 56.1233C71.7793 56.3469 71.4348 56.5534 70.8593 56.7537C70.7401 56.0262 70.621 55.2987 70.5018 54.5713C70.9587 54.4834 71.439 54.3884 71.903 54.3238Z"
            fill="url(#paint32_linear_10017_33541)" />
        <path opacity="0.3"
            d="M71.7476 55.2361C71.85 55.1541 71.9453 55.0488 72.0335 54.9202C72.1305 55.3234 72.2276 55.7267 72.3246 56.1299C71.7562 56.3536 71.4116 56.56 70.8361 56.7604C70.7978 56.4665 70.7361 56.1798 70.6978 55.886C70.7606 55.8414 70.8072 55.8273 70.8701 55.7827C71.1751 55.6137 71.4801 55.4447 71.7476 55.2361Z"
            fill="url(#paint33_linear_10017_33541)" />
        <path opacity="0.3"
            d="M74.234 63.925C76.4219 63.2603 77.6568 60.9477 76.9922 58.7597C76.3275 56.5716 74.0151 55.3368 71.8271 56.0015C69.6392 56.6662 68.4043 58.9788 69.0689 61.1669C69.7335 63.3549 72.046 64.5898 74.234 63.925Z"
            fill="url(#paint34_linear_10017_33541)" />
        <path
            d="M74.7687 63.1173C76.6506 62.0185 77.2855 59.6021 76.1869 57.7202C75.0882 55.8382 72.672 55.2032 70.7901 56.302C68.9082 57.4008 68.2732 59.8172 69.3719 61.6991C70.4705 63.5811 72.8868 64.216 74.7687 63.1173Z"
            fill="white" />
        <path opacity="0.3"
            d="M73.8021 63.0887C75.6683 62.5217 76.7215 60.5492 76.1547 58.6829C75.5878 56.8166 73.6153 55.7634 71.7492 56.3303C69.883 56.8973 68.8297 58.8698 69.3966 60.7361C69.9635 62.6024 71.9359 63.6556 73.8021 63.0887Z"
            fill="url(#paint35_linear_10017_33541)" />
        <path
            d="M70.1888 60.4958C69.7499 59.051 70.5612 57.5317 72.006 57.0928C73.4509 56.6538 74.97 57.465 75.4089 58.9099C75.8478 60.3548 75.0366 61.874 73.5917 62.313C72.1469 62.7519 70.6277 61.9407 70.1888 60.4958ZM70.7248 60.333C71.0717 61.4749 72.2799 62.1006 73.3985 61.7607C74.5404 61.4138 75.1661 60.2055 74.8263 59.0869C74.4865 57.9683 73.2712 57.3193 72.1526 57.6592C71.034 57.999 70.378 59.1911 70.7248 60.333Z"
            fill="#131163" />
        <path opacity="0.3"
            d="M71.9599 59.9573C72.0944 60.4 72.5805 60.6596 73.0233 60.5251C73.4661 60.3906 73.7257 59.9044 73.5912 59.4617C73.4567 59.0189 72.9706 58.7593 72.5278 58.8938C72.085 59.0283 71.8254 59.5145 71.9599 59.9573Z"
            fill="url(#paint36_linear_10017_33541)" />
        <path opacity="0.3"
            d="M93.5454 71.2618C93.7402 69.0697 94.2517 64.8804 95.3476 61.5435L95.1772 61.5192C95.8104 59.595 96.6385 57.9144 97.7101 57.0619C98.2702 56.5992 98.9035 56.38 99.5367 56.38C99.5611 54.0904 99.6341 51.4356 98.392 48.5859C96.9551 45.249 95.1528 44.7132 95.1528 44.7132L94.5683 44.2261C99.2688 44.9324 100.657 52.6047 100.17 56.453C100.803 56.6235 101.363 56.9889 101.802 57.5978C102.63 58.7182 102.995 60.5449 103.117 62.5909L102.946 62.5665C103.141 66.0738 102.557 70.2388 102.191 72.4309C101.997 73.5513 100.974 74.3063 99.8777 74.1602C99.8533 74.1602 99.829 74.1602 99.829 74.1602L99.7315 74.1358C99.2444 74.3794 98.3189 74.355 98.392 73.6243C98.4894 72.8936 99.4149 73.1128 99.8046 73.4782L99.902 73.5026C100.681 73.6487 101.412 73.0885 101.534 72.3091C101.826 70.5798 102.484 66.1225 102.264 62.4691L102.094 62.4447C101.899 59.7411 101.29 58.572 100.998 58.1823C100.657 57.6952 100.219 57.4273 99.7072 57.3542C99.1957 57.2811 98.7086 57.4273 98.2459 57.817C97.3935 58.499 96.6872 59.8873 96.0783 61.6409L95.9078 61.6166C94.7631 65.0752 94.2517 69.5568 94.1055 71.3105C94.0325 72.0899 94.5926 72.8206 95.372 72.8936H95.4694C95.9565 72.6501 96.9064 72.6744 96.8089 73.4051C96.7115 74.1358 95.8104 73.9166 95.3963 73.5513H95.2989C95.2746 73.5513 95.2502 73.5513 95.2502 73.5513C94.2517 73.3808 93.4479 72.3822 93.5454 71.2618Z"
            fill="url(#paint37_linear_10017_33541)" />
        <path
            d="M100.048 73.4291C100.121 72.942 98.5627 72.2844 98.4409 73.2343C98.3191 74.1842 99.9996 73.9162 100.048 73.4291Z"
            fill="white" />
        <path
            d="M95.299 72.8201C95.3721 72.3329 97.0282 72.1137 96.9064 73.0393C96.7846 73.9648 95.2503 73.3072 95.299 72.8201Z"
            fill="white" />
        <path
            d="M95.3476 73.1369C95.372 73.1369 95.3963 73.1369 95.3963 73.1369L95.7617 73.1856C95.9322 73.2099 96.1026 73.0638 96.127 72.8933C96.1514 72.7228 96.0296 72.5523 95.8591 72.5523L95.4938 72.5036C94.7144 72.4305 94.1542 71.7242 94.2273 70.9448C94.4709 68.363 95.4694 59.7164 98.2702 57.5C98.7573 57.1103 99.2931 56.9398 99.8533 57.0129C100.413 57.0859 100.876 57.3782 101.242 57.8897C103.36 60.7638 102.094 69.3616 101.656 71.9434C101.534 72.7228 100.803 73.2586 100.024 73.1125L99.6585 73.0638C99.488 73.0394 99.3175 73.1612 99.2931 73.3317C99.2688 73.5022 99.3906 73.6727 99.5611 73.697L99.9264 73.7458C99.9507 73.7458 99.9751 73.7458 99.9751 73.7458C101.071 73.8919 102.094 73.1369 102.289 72.0408C102.873 68.6796 103.969 60.5202 101.777 57.5C101.29 56.8424 100.681 56.477 99.9507 56.3796C99.2201 56.2822 98.5381 56.5014 97.8806 56.9885C94.958 59.3267 93.9107 67.4861 93.5941 70.8961C93.4479 72.0164 94.2517 72.9907 95.3476 73.1369Z"
            fill="#A8B3E9" />
        <path
            d="M97.7343 56.8665C98.2945 56.4038 98.9277 56.1846 99.561 56.1846C99.5853 53.9194 99.7558 51.2402 98.5137 48.4392C97.0767 45.1511 95.1771 44.6883 95.1771 44.6883L94.5925 44.2012C99.293 44.9075 100.681 52.458 100.194 56.2576C100.827 56.4038 101.388 56.7935 101.826 57.4024C102.654 58.5228 103.019 60.3252 103.141 62.3224L102.167 62.2006C101.972 59.5214 101.363 58.3766 101.071 57.9869C100.73 57.4998 100.292 57.2562 99.7802 57.1832C99.2687 57.1101 98.7816 57.2562 98.3189 57.6216C97.4664 58.3036 96.7601 59.6675 96.1513 61.3968L95.1771 61.2751C95.8346 59.3753 96.6627 57.7434 97.7343 56.8665Z"
            fill="#131163" />
        <path
            d="M101.861 86.7368L94.8169 91.6136C95.3587 93.781 97.1468 97.8991 99.9643 97.0321C102.782 96.1652 102.402 89.8074 101.861 86.7368Z"
            fill="url(#paint38_linear_10017_33541)" />
        <mask id="mask6_10017_33541" style="mask-type:alpha" maskUnits="userSpaceOnUse" x="38"
            y="34" width="32" height="41">
            <path
                d="M45.1044 34.312C50.1162 35.3872 53.2062 35.3872 54.8573 35.3872L49.7099 59.5085L62.5783 44.8783L69.4866 57.4765C60.8174 64.8368 44.8889 74.6805 43.3488 74.6805C40.9105 74.6805 39.5506 74.0032 38.259 71.9712C36.7947 64.169 41.9555 43.7991 43.3488 39.5952C44.2916 36.7504 44.4271 36.6149 45.1044 34.312Z"
                fill="#DBE1EB" />
        </mask>
        <g mask="url(#mask6_10017_33541)">
            <path
                d="M51.3353 42.169C50.1162 37.1568 46.1879 35.7118 43.6143 35.1248L44.8334 33.3638L54.9926 35.1248L53.0962 52.3288L56.5575 51.5161C56.4672 51.787 50.9018 59.1292 50.2516 60.8631C49.6014 62.5971 47.6328 64.3852 46.7298 65.0625C47.0007 64.7916 47.38 64.1143 48.3552 61.9468C47.7604 62.3434 45.3821 63.526 43.9787 64.2086C43.8539 64.2744 43.7322 64.3336 43.6143 64.3852C43.7258 64.3314 43.848 64.2721 43.9787 64.2086C45.6879 63.3067 47.9621 61.1629 48.7616 60.3213C50.0259 54.6769 51.9613 44.7428 51.3353 42.169Z"
                fill="url(#paint39_linear_10017_33541)" />
            <path
                d="M44.8334 40.0015C46.3506 35.0164 44.9237 35.6666 44.0207 36.6149C43.7498 36.6149 42.91 37.1026 41.7179 39.0532C40.2279 41.4916 36.5706 71.0229 37.9252 68.0427C39.2797 65.0625 42.937 46.2329 44.8334 40.0015Z"
                fill="url(#paint40_linear_10017_33541)" />
        </g>
        <path
            d="M102.267 86.1952C99.829 87.5498 94.8171 90.5301 94.2753 91.6138C93.598 92.9684 105.383 84.7051 102.267 86.1952Z"
            fill="#A5B4CC" />
        <path
            d="M73.7741 49.5905C73.144 48.9426 72.4667 48.4007 70.2405 46.0566C70.9825 43.4062 72.9001 37.8073 74.634 36.6153C76.3678 35.4232 78.2913 34.8091 79.1041 34.7188C78.4268 35.3961 77.0722 35.3961 76.8013 35.9379C76.6097 36.3211 74.634 53.9548 77.3431 59.5088C79.5104 63.9521 81.7563 71.7635 82.4905 75.0873C78.5642 68.1766 69.7387 53.9533 70.2405 53.3599C71.1121 52.3292 72.7376 50.9745 73.7741 49.5905Z"
            fill="#F6F8FA" />
        <path
            d="M96.3541 49.7257C96.9842 49.0778 97.6615 48.536 99.8877 46.1918C99.1456 43.5414 97.228 37.9426 95.4942 36.7505C93.7603 35.5584 91.8369 34.9443 91.0241 34.854C91.7014 35.5313 93.056 35.5313 93.3269 36.0732C93.5184 36.4563 95.4942 54.09 92.7851 59.6441C90.6177 64.0873 88.3719 71.8987 87.6377 75.2225C91.564 68.3119 100.389 54.0885 99.8877 53.4952C99.0161 52.4644 97.3906 51.1098 96.3541 49.7257Z"
            fill="#F6F8FA" />
        <path
            d="M82.4905 96.3549L74.3631 66.959L70.0285 75.8997L66.2357 81.7247L61.7656 103.805H82.4905V96.3549Z"
            fill="url(#paint41_linear_10017_33541)" />
        <path
            d="M66.5064 42.5757C66.4709 43.7808 66.5412 46.6833 67.2545 49.7104C68.1438 52.3645 68.6884 54.0569 67.9964 52.1937C67.6935 51.3781 67.4499 50.5396 67.2545 49.7104C66.5771 47.6887 65.6996 45.109 65.0164 43.1175L66.5064 42.5757Z"
            fill="#CDCFEB" />
    </g>
    <defs>
        <linearGradient id="paint0_linear_10017_33541" x1="46.0377" y1="37.535" x2="55.895"
            y2="20.4626" gradientUnits="userSpaceOnUse">
            <stop offset="0.0159875" stop-color="#FFC2A9" />
            <stop offset="1" stop-color="#FF9595" />
        </linearGradient>
        <linearGradient id="paint1_linear_10017_33541" x1="46.0377" y1="37.535" x2="55.895"
            y2="20.4626" gradientUnits="userSpaceOnUse">
            <stop offset="0.0159875" stop-color="#FFC2A9" />
            <stop offset="1" stop-color="#FF9595" />
        </linearGradient>
        <linearGradient id="paint2_linear_10017_33541" x1="55.5541" y1="27.8652" x2="43.8431"
            y2="39.9456" gradientUnits="userSpaceOnUse">
            <stop stop-color="#E87172" />
            <stop offset="1" stop-color="#E87172" stop-opacity="0" />
        </linearGradient>
        <linearGradient id="paint3_linear_10017_33541" x1="52.1522" y1="25.9012" x2="50.8671"
            y2="27.479" gradientUnits="userSpaceOnUse">
            <stop stop-color="#E87172" />
            <stop offset="1" stop-color="#E87172" stop-opacity="0" />
        </linearGradient>
        <linearGradient id="paint4_linear_10017_33541" x1="51.9846" y1="27.6813" x2="48.5393"
            y2="30.6309" gradientUnits="userSpaceOnUse">
            <stop stop-color="#E87172" />
            <stop offset="1" stop-color="#E87172" stop-opacity="0" />
        </linearGradient>
        <linearGradient id="paint5_linear_10017_33541" x1="50.5461" y1="24.3479" x2="49.1348"
            y2="26.0352" gradientUnits="userSpaceOnUse">
            <stop stop-color="#E87172" />
            <stop offset="1" stop-color="#E87172" stop-opacity="0" />
        </linearGradient>
        <linearGradient id="paint6_linear_10017_33541" x1="52.5828" y1="23.2107" x2="50.3789"
            y2="26.0626" gradientUnits="userSpaceOnUse">
            <stop stop-color="#E87172" />
            <stop offset="1" stop-color="#E87172" stop-opacity="0" />
        </linearGradient>
        <linearGradient id="paint7_linear_10017_33541" x1="54.5325" y1="23.356" x2="52.037"
            y2="25.571" gradientUnits="userSpaceOnUse">
            <stop stop-color="#E87172" />
            <stop offset="1" stop-color="#E87172" stop-opacity="0" />
        </linearGradient>
        <linearGradient id="paint8_linear_10017_33541" x1="82.3467" y1="31.7578" x2="83.0323"
            y2="41.2212" gradientUnits="userSpaceOnUse">
            <stop stop-color="#E87172" />
            <stop offset="1" stop-color="#E87172" stop-opacity="0" />
        </linearGradient>
        <linearGradient id="paint9_linear_10017_33541" x1="84.9465" y1="36.6202" x2="84.9465"
            y2="14.8115" gradientUnits="userSpaceOnUse">
            <stop offset="0.0159875" stop-color="#FFC2A9" />
            <stop offset="1" stop-color="#FF9595" />
        </linearGradient>
        <linearGradient id="paint10_linear_10017_33541" x1="84.6576" y1="25.797" x2="84.6576"
            y2="21.0557" gradientUnits="userSpaceOnUse">
            <stop stop-color="#FFA889" />
            <stop offset="0.171875" stop-color="#FFCEBC" stop-opacity="0.828125" />
            <stop offset="0.416667" stop-color="#FFF0EB" stop-opacity="0.583333" />
            <stop offset="1" stop-color="#FFB398" stop-opacity="0" />
        </linearGradient>
        <linearGradient id="paint11_linear_10017_33541" x1="90.9849" y1="21.2068" x2="86.7178"
            y2="22.2514" gradientUnits="userSpaceOnUse">
            <stop stop-color="#CF6074" />
            <stop offset="1" stop-color="#FF817F" />
        </linearGradient>
        <linearGradient id="paint12_linear_10017_33541" x1="89.5553" y1="22.5569" x2="87.9021"
            y2="22.5569" gradientUnits="userSpaceOnUse">
            <stop stop-color="#0E1B6D" />
            <stop offset="1" stop-color="#002538" />
        </linearGradient>
        <linearGradient id="paint13_linear_10017_33541" x1="78.5058" y1="21.2068" x2="82.7729"
            y2="22.2514" gradientUnits="userSpaceOnUse">
            <stop stop-color="#CF6074" />
            <stop offset="1" stop-color="#FF817F" />
        </linearGradient>
        <linearGradient id="paint14_linear_10017_33541" x1="79.9355" y1="22.5569" x2="81.5886"
            y2="22.5569" gradientUnits="userSpaceOnUse">
            <stop stop-color="#0E1B6D" />
            <stop offset="1" stop-color="#002538" />
        </linearGradient>
        <linearGradient id="paint15_linear_10017_33541" x1="76.383" y1="21.3268" x2="74.351"
            y2="17.9403" gradientUnits="userSpaceOnUse">
            <stop stop-color="#FFD3C4" />
            <stop offset="1" stop-color="#FFB398" stop-opacity="0" />
        </linearGradient>
        <linearGradient id="paint16_linear_10017_33541" x1="93.5359" y1="21.3268" x2="95.5679"
            y2="17.9403" gradientUnits="userSpaceOnUse">
            <stop stop-color="#FFD3C4" />
            <stop offset="1" stop-color="#FFB398" stop-opacity="0" />
        </linearGradient>
        <linearGradient id="paint17_linear_10017_33541" x1="81.0002" y1="10.3539" x2="87.9087"
            y2="14.8239" gradientUnits="userSpaceOnUse">
            <stop stop-color="#040A3A" />
            <stop offset="1" stop-color="#051066" stop-opacity="0" />
        </linearGradient>
        <linearGradient id="paint18_linear_10017_33541" x1="79.3633" y1="11.4321" x2="75.988"
            y2="22.4103" gradientUnits="userSpaceOnUse">
            <stop stop-color="#080E43" />
            <stop offset="1" stop-color="#000A63" stop-opacity="0" />
        </linearGradient>
        <linearGradient id="paint19_linear_10017_33541" x1="91.5666" y1="12.4492" x2="91.5666"
            y2="22.1395" gradientUnits="userSpaceOnUse">
            <stop stop-color="#080D3D" />
            <stop offset="1" stop-color="#000A63" stop-opacity="0" />
        </linearGradient>
        <linearGradient id="paint20_linear_10017_33541" x1="86.0811" y1="7.23828" x2="86.0811"
            y2="10.6374" gradientUnits="userSpaceOnUse">
            <stop stop-color="#6E7DF1" />
            <stop offset="1" stop-color="#6E7DF1" stop-opacity="0" />
        </linearGradient>
        <linearGradient id="paint21_linear_10017_33541" x1="77.4066" y1="11.438" x2="77.4066"
            y2="18.2112" gradientUnits="userSpaceOnUse">
            <stop stop-color="#606DD8" />
            <stop offset="1" stop-color="#606DD8" stop-opacity="0" />
        </linearGradient>
        <linearGradient id="paint22_linear_10017_33541" x1="85.1993" y1="8.99969" x2="85.1993"
            y2="10.7908" gradientUnits="userSpaceOnUse">
            <stop stop-color="#6E7DF1" />
            <stop offset="1" stop-color="#6E7DF1" stop-opacity="0" />
        </linearGradient>
        <linearGradient id="paint23_linear_10017_33541" x1="93.054" y1="10.896" x2="93.054"
            y2="17.3983" gradientUnits="userSpaceOnUse">
            <stop stop-color="#5965CD" />
            <stop offset="1" stop-color="#5965CD" stop-opacity="0" />
        </linearGradient>
        <linearGradient id="paint24_linear_10017_33541" x1="85.1996" y1="38.647" x2="85.1996"
            y2="101.774" gradientUnits="userSpaceOnUse">
            <stop stop-color="#1F53CA" />
            <stop offset="1" stop-color="#1F53CA" stop-opacity="0" />
        </linearGradient>
        <linearGradient id="paint25_linear_10017_33541" x1="76.9366" y1="81.3183" x2="84.8992"
            y2="97.8091" gradientUnits="userSpaceOnUse">
            <stop stop-color="#194CBF" />
            <stop offset="1" stop-color="#2566F9" stop-opacity="0" />
        </linearGradient>
        <linearGradient id="paint26_linear_10017_33541" x1="82.4903" y1="102.587" x2="100.373"
            y2="45.8275" gradientUnits="userSpaceOnUse">
            <stop stop-color="#A5B4CC" />
            <stop stop-color="#A5B4CC" />
            <stop stop-color="#A5B4CC" />
            <stop offset="0.0001" stop-color="#A5B4CC" />
            <stop offset="1" stop-color="#A5B4CC" stop-opacity="0" />
        </linearGradient>
        <linearGradient id="paint27_linear_10017_33541" x1="98.2712" y1="40.2727" x2="96.7132"
            y2="50.7035" gradientUnits="userSpaceOnUse">
            <stop stop-color="#A5B4CC" />
            <stop offset="1" stop-color="#A5B4CC" stop-opacity="0" />
        </linearGradient>
        <linearGradient id="paint28_linear_10017_33541" x1="104.705" y1="47.8588" x2="104.57"
            y2="86.7372" gradientUnits="userSpaceOnUse">
            <stop stop-color="#A5B4CC" />
            <stop offset="1" stop-color="#A5B4CC" stop-opacity="0" />
        </linearGradient>
        <linearGradient id="paint29_linear_10017_33541" x1="106.466" y1="67.6363" x2="106.344"
            y2="100.482" gradientUnits="userSpaceOnUse">
            <stop stop-color="#A5B4CC" />
            <stop offset="1" stop-color="#A5B4CC" stop-opacity="0" />
        </linearGradient>
        <linearGradient id="paint30_linear_10017_33541" x1="87.6378" y1="102.451" x2="69.7556"
            y2="45.6922" gradientUnits="userSpaceOnUse">
            <stop stop-color="#A5B4CC" />
            <stop stop-color="#A5B4CC" />
            <stop stop-color="#A5B4CC" />
            <stop offset="0.0001" stop-color="#A5B4CC" />
            <stop offset="1" stop-color="#A5B4CC" stop-opacity="0" />
        </linearGradient>
        <linearGradient id="paint31_linear_10017_33541" x1="65.4229" y1="29.8422" x2="65.5583"
            y2="86.6019" gradientUnits="userSpaceOnUse">
            <stop stop-color="#A5B4CC" />
            <stop offset="1" stop-color="#A5B4CC" stop-opacity="0" />
        </linearGradient>
        <linearGradient id="paint32_linear_10017_33541" x1="71.0919" y1="54.4254" x2="72.9186"
            y2="61.5784" gradientUnits="userSpaceOnUse">
            <stop stop-color="#C8BDF6" />
            <stop offset="1" stop-color="#F3EDFB" />
        </linearGradient>
        <linearGradient id="paint33_linear_10017_33541" x1="71.263" y1="55.1114" x2="72.5028"
            y2="59.9661" gradientUnits="userSpaceOnUse">
            <stop stop-color="#9D68C2" />
            <stop offset="1" stop-color="#CCEDFF" />
        </linearGradient>
        <linearGradient id="paint34_linear_10017_33541" x1="76.9945" y1="58.7485" x2="69.0685"
            y2="61.156" gradientUnits="userSpaceOnUse">
            <stop stop-color="#9D68C2" />
            <stop offset="1" stop-color="#CCEDFF" />
        </linearGradient>
        <linearGradient id="paint35_linear_10017_33541" x1="74.9556" y1="62.7999" x2="71.6649"
            y2="58.1233" gradientUnits="userSpaceOnUse">
            <stop stop-color="#9D68C2" />
            <stop offset="1" stop-color="white" />
        </linearGradient>
        <linearGradient id="paint36_linear_10017_33541" x1="73.6984" y1="61.1419" x2="72.0274"
            y2="58.5322" gradientUnits="userSpaceOnUse">
            <stop stop-color="#9D68C2" />
            <stop offset="1" stop-color="#CCEDFF" />
        </linearGradient>
        <linearGradient id="paint37_linear_10017_33541" x1="103.16" y1="59.2376" x2="93.5476"
            y2="59.2376" gradientUnits="userSpaceOnUse">
            <stop stop-color="#9D68C2" />
            <stop offset="1" stop-color="#CCEDFF" />
        </linearGradient>
        <linearGradient id="paint38_linear_10017_33541" x1="98.5293" y1="86.7368" x2="98.5293"
            y2="97.1503" gradientUnits="userSpaceOnUse">
            <stop stop-color="#A5B4CC" />
            <stop offset="1" stop-color="#A5B4CC" stop-opacity="0" />
        </linearGradient>
        <linearGradient id="paint39_linear_10017_33541" x1="67.1837" y1="53.9544" x2="36.9841"
            y2="44.0435" gradientUnits="userSpaceOnUse">
            <stop stop-color="#A5B4CC" />
            <stop offset="1" stop-color="#A5B4CC" stop-opacity="0" />
        </linearGradient>
        <linearGradient id="paint40_linear_10017_33541" x1="41.5644" y1="35.9551" x2="41.5644"
            y2="68.2537" gradientUnits="userSpaceOnUse">
            <stop stop-color="white" />
            <stop offset="1" stop-color="white" stop-opacity="0" />
        </linearGradient>
        <linearGradient id="paint41_linear_10017_33541" x1="95.6298" y1="99.8769" x2="64.3388"
            y2="87.1446" gradientUnits="userSpaceOnUse">
            <stop stop-color="#B4B0EA" />
            <stop offset="1" stop-color="#B4B0EA" stop-opacity="0" />
        </linearGradient>
    </defs>
</svg>
    